<svg width="206" height="88" viewBox="0 0 206 88" fill="none" xmlns="http://www.w3.org/2000/svg">
<path fill-rule="evenodd" clip-rule="evenodd" d="M206 0H0V74H89.5649L103.435 87.8701L117.305 74H206V0Z" fill="#299C5B"/>
<path d="M50.0429 50.8241V54H46.8835V50.8241H50.0429ZM46.8835 50.8241V47.6802H50.0429V50.8241H46.8835ZM46.8835 47.6802V44.4561H50.0429V47.6802H46.8835ZM46.8835 44.4561V41.2481H50.0429V44.4561H46.8835ZM46.8835 41.2481V38.0241H50.0429V41.2481H46.8835ZM46.8835 38.0241V34.816H50.0429V38.0241H46.8835ZM46.8835 34.816V31.592H50.0429V34.816H46.8835ZM46.8835 31.592V28.3679H50.0429V31.592H46.8835ZM46.8835 28.3679V25.2241H50.0429V28.3679H46.8835ZM43.676 25.2241V22H46.8835V25.2241H43.676ZM46.8835 50.8241V54H43.676V50.8241H46.8835ZM43.676 50.8241V47.6802H46.8835V50.8241H43.676ZM43.676 47.6802V44.4561H46.8835V47.6802H43.676ZM43.676 44.4561V41.2481H46.8835V44.4561H43.676ZM43.676 41.2481V38.0241H46.8835V41.2481H43.676ZM43.676 38.0241V34.816H46.8835V38.0241H43.676ZM43.676 34.816V31.592H46.8835V34.816H43.676ZM43.676 31.592V28.3679H46.8835V31.592H43.676ZM43.676 28.3679V25.2241H46.8835V28.3679H43.676ZM40.4525 25.2241V22H43.676V25.2241H40.4525ZM43.676 50.8241V54H40.4525V50.8241H43.676ZM40.4525 50.8241V47.6802H43.676V50.8241H40.4525ZM37.245 25.2241V22H40.4525V25.2241H37.245ZM40.4525 50.8241V54H37.245V50.8241H40.4525ZM37.245 50.8241V47.6802H40.4525V50.8241H37.245ZM34.0215 25.2241V22H37.245V25.2241H34.0215ZM34.0215 50.8241V47.6802H37.245V50.8241H34.0215ZM34.0215 47.6802V44.4561H37.245V47.6802H34.0215ZM34.0215 44.4561V41.2481H37.245V44.4561H34.0215ZM34.0215 34.816V31.592H37.245V34.816H34.0215ZM34.0215 31.592V28.3679H37.245V31.592H34.0215ZM34.0215 28.3679V25.2241H37.245V28.3679H34.0215ZM34.0215 50.8241V54H30.7979V50.8241H34.0215ZM30.7979 50.8241V47.6802H34.0215V50.8241H30.7979ZM30.7979 47.6802V44.4561H34.0215V47.6802H30.7979ZM30.7979 44.4561V41.2481H34.0215V44.4561H30.7979ZM30.7979 41.2481V38.0241H34.0215V41.2481H30.7979ZM30.7979 31.592V28.3679H34.0215V31.592H30.7979ZM30.7979 28.3679V25.2241H34.0215V28.3679H30.7979ZM27.6546 25.2241V22H30.7979V25.2241H27.6546ZM30.7979 50.8241V54H27.6546V50.8241H30.7979ZM27.6546 50.8241V47.6802H30.7979V50.8241H27.6546ZM27.6546 47.6802V44.4561H30.7979V47.6802H27.6546ZM27.6546 44.4561V41.2481H30.7979V44.4561H27.6546ZM27.6546 41.2481V38.0241H30.7979V41.2481H27.6546ZM27.6546 38.0241V34.816H30.7979V38.0241H27.6546ZM27.6546 28.3679V25.2241H30.7979V28.3679H27.6546ZM24.431 25.2241V22H27.6546V25.2241H24.431ZM27.6546 50.8241V54H24.431V50.8241H27.6546ZM24.431 50.8241V47.6802H27.6546V50.8241H24.431ZM21.2235 25.2241V22H24.431V25.2241H21.2235ZM24.431 50.8241V54H21.2235V50.8241H24.431ZM21.2235 50.8241V47.6802H24.431V50.8241H21.2235ZM18 25.2241V22H21.2235V25.2241H18ZM18 50.8241V47.6802H21.2235V50.8241H18ZM18 47.6802V44.4561H21.2235V47.6802H18ZM18 44.4561V41.2481H21.2235V44.4561H18ZM18 41.2481V38.0241H21.2235V41.2481H18ZM18 38.0241V34.816H21.2235V38.0241H18ZM18 34.816V31.592H21.2235V34.816H18ZM18 31.592V28.3679H21.2235V31.592H18ZM18 28.3679V25.2241H21.2235V28.3679H18Z" fill="white"/>
<path d="M75.7831 50.8241V47.6802H78.9425V50.8241H75.7831ZM75.7831 47.6802V44.4561H78.9425V47.6802H75.7831ZM75.7831 44.4561V41.2481H78.9425V44.4561H75.7831ZM75.7831 41.2481V38.0241H78.9425V41.2481H75.7831ZM75.7831 38.0241V34.816H78.9425V38.0241H75.7831ZM75.7831 34.816V31.592H78.9425V34.816H75.7831ZM75.7831 31.592V28.3679H78.9425V31.592H75.7831ZM75.7831 50.8241V54H72.5756V50.8241H75.7831ZM72.5756 50.8241V47.6802H75.7831V50.8241H72.5756ZM72.5756 47.6802V44.4561H75.7831V47.6802H72.5756ZM72.5756 44.4561V41.2481H75.7831V44.4561H72.5756ZM72.5756 41.2481V38.0241H75.7831V41.2481H72.5756ZM72.5756 38.0241V34.816H75.7831V38.0241H72.5756ZM72.5756 34.816V31.592H75.7831V34.816H72.5756ZM72.5756 31.592V28.3679H75.7831V31.592H72.5756ZM72.5756 28.3679V25.2241H75.7831V28.3679H72.5756ZM69.3521 25.2241V22H72.5756V25.2241H69.3521ZM72.5756 50.8241V54H69.3521V50.8241H72.5756ZM69.3521 50.8241V47.6802H72.5756V50.8241H69.3521ZM69.3521 47.6802V44.4561H72.5756V47.6802H69.3521ZM69.3521 38.0241V34.816H72.5756V38.0241H69.3521ZM69.3521 34.816V31.592H72.5756V34.816H69.3521ZM69.3521 28.3679V25.2241H72.5756V28.3679H69.3521ZM66.1446 25.2241V22H69.3521V25.2241H66.1446ZM69.3521 50.8241V54H66.1446V50.8241H69.3521ZM66.1446 50.8241V47.6802H69.3521V50.8241H66.1446ZM66.1446 34.816V31.592H69.3521V34.816H66.1446ZM62.921 25.2241V22H66.1446V25.2241H62.921ZM66.1446 50.8241V54H62.921V50.8241H66.1446ZM62.921 50.8241V47.6802H66.1446V50.8241H62.921ZM62.921 44.4561V41.2481H66.1446V44.4561H62.921ZM62.921 41.2481V38.0241H66.1446V41.2481H62.921ZM62.921 34.816V31.592H66.1446V34.816H62.921ZM62.921 31.592V28.3679H66.1446V31.592H62.921ZM59.6975 25.2241V22H62.921V25.2241H59.6975ZM62.921 50.8241V54H59.6975V50.8241H62.921ZM59.6975 50.8241V47.6802H62.921V50.8241H59.6975ZM59.6975 44.4561V41.2481H62.921V44.4561H59.6975ZM59.6975 41.2481V38.0241H62.921V41.2481H59.6975ZM59.6975 34.816V31.592H62.921V34.816H59.6975ZM59.6975 31.592V28.3679H62.921V31.592H59.6975ZM56.5542 25.2241V22H59.6975V25.2241H56.5542ZM59.6975 50.8241V54H56.5542V50.8241H59.6975ZM56.5542 50.8241V47.6802H59.6975V50.8241H56.5542ZM56.5542 44.4561V41.2481H59.6975V44.4561H56.5542ZM56.5542 41.2481V38.0241H59.6975V41.2481H56.5542ZM56.5542 34.816V31.592H59.6975V34.816H56.5542ZM56.5542 31.592V28.3679H59.6975V31.592H56.5542ZM53.3306 25.2241V22H56.5542V25.2241H53.3306ZM56.5542 50.8241V54H53.3306V50.8241H56.5542ZM53.3306 50.8241V47.6802H56.5542V50.8241H53.3306ZM53.3306 41.2481V38.0241H56.5542V41.2481H53.3306ZM50.1231 25.2241V22H53.3306V25.2241H50.1231ZM50.1231 50.8241V47.6802H53.3306V50.8241H50.1231ZM50.1231 47.6802V44.4561H53.3306V47.6802H50.1231ZM50.1231 41.2481V38.0241H53.3306V41.2481H50.1231ZM50.1231 38.0241V34.816H53.3306V38.0241H50.1231ZM50.1231 28.3679V25.2241H53.3306V28.3679H50.1231ZM46.8996 47.6802V44.4561H50.1231V47.6802H46.8996ZM46.8996 44.4561V41.2481H50.1231V44.4561H46.8996ZM46.8996 41.2481V38.0241H50.1231V41.2481H46.8996ZM46.8996 38.0241V34.816H50.1231V38.0241H46.8996ZM46.8996 34.816V31.592H50.1231V34.816H46.8996ZM46.8996 31.592V28.3679H50.1231V31.592H46.8996ZM46.8996 28.3679V25.2241H50.1231V28.3679H46.8996Z" fill="white"/>
<path d="M107.842 50.8241V54H104.683V50.8241H107.842ZM104.683 50.8241V47.6802H107.842V50.8241H104.683ZM104.683 47.6802V44.4561H107.842V47.6802H104.683ZM104.683 44.4561V41.2481H107.842V44.4561H104.683ZM104.683 41.2481V38.0241H107.842V41.2481H104.683ZM104.683 38.0241V34.816H107.842V38.0241H104.683ZM104.683 34.816V31.592H107.842V34.816H104.683ZM104.683 31.592V28.3679H107.842V31.592H104.683ZM104.683 50.8241V54H101.475V50.8241H104.683ZM101.475 50.8241V47.6802H104.683V50.8241H101.475ZM101.475 47.6802V44.4561H104.683V47.6802H101.475ZM101.475 44.4561V41.2481H104.683V44.4561H101.475ZM101.475 41.2481V38.0241H104.683V41.2481H101.475ZM101.475 38.0241V34.816H104.683V38.0241H101.475ZM101.475 34.816V31.592H104.683V34.816H101.475ZM101.475 31.592V28.3679H104.683V31.592H101.475ZM101.475 28.3679V25.2241H104.683V28.3679H101.475ZM98.2517 25.2241V22H101.475V25.2241H98.2517ZM101.475 50.8241V54H98.2517V50.8241H101.475ZM98.2517 50.8241V47.6802H101.475V50.8241H98.2517ZM98.2517 28.3679V25.2241H101.475V28.3679H98.2517ZM95.0442 25.2241V22H98.2517V25.2241H95.0442ZM98.2517 50.8241V54H95.0442V50.8241H98.2517ZM95.0442 50.8241V47.6802H98.2517V50.8241H95.0442ZM91.8206 25.2241V22H95.0442V25.2241H91.8206ZM91.8206 50.8241V47.6802H95.0442V50.8241H91.8206ZM91.8206 47.6802V44.4561H95.0442V47.6802H91.8206ZM91.8206 44.4561V41.2481H95.0442V44.4561H91.8206ZM91.8206 38.0241V34.816H95.0442V38.0241H91.8206ZM91.8206 34.816V31.592H95.0442V34.816H91.8206ZM91.8206 31.592V28.3679H95.0442V31.592H91.8206ZM88.5971 25.2241V22H91.8206V25.2241H88.5971ZM91.8206 50.8241V54H88.5971V50.8241H91.8206ZM88.5971 50.8241V47.6802H91.8206V50.8241H88.5971ZM88.5971 47.6802V44.4561H91.8206V47.6802H88.5971ZM88.5971 44.4561V41.2481H91.8206V44.4561H88.5971ZM88.5971 38.0241V34.816H91.8206V38.0241H88.5971ZM88.5971 34.816V31.592H91.8206V34.816H88.5971ZM88.5971 31.592V28.3679H91.8206V31.592H88.5971ZM85.4537 25.2241V22H88.5971V25.2241H85.4537ZM88.5971 50.8241V54H85.4537V50.8241H88.5971ZM85.4537 50.8241V47.6802H88.5971V50.8241H85.4537ZM85.4537 47.6802V44.4561H88.5971V47.6802H85.4537ZM85.4537 44.4561V41.2481H88.5971V44.4561H85.4537ZM85.4537 38.0241V34.816H88.5971V38.0241H85.4537ZM85.4537 34.816V31.592H88.5971V34.816H85.4537ZM85.4537 31.592V28.3679H88.5971V31.592H85.4537ZM82.2302 25.2241V22H85.4537V25.2241H82.2302ZM85.4537 50.8241V54H82.2302V50.8241H85.4537ZM82.2302 50.8241V47.6802H85.4537V50.8241H82.2302ZM79.0227 25.2241V22H82.2302V25.2241H79.0227ZM82.2302 50.8241V54H79.0227V50.8241H82.2302ZM79.0227 50.8241V47.6802H82.2302V50.8241H79.0227ZM79.0227 28.3679V25.2241H82.2302V28.3679H79.0227ZM75.7992 50.8241V47.6802H79.0227V50.8241H75.7992ZM75.7992 47.6802V44.4561H79.0227V47.6802H75.7992ZM75.7992 44.4561V41.2481H79.0227V44.4561H75.7992ZM75.7992 41.2481V38.0241H79.0227V41.2481H75.7992ZM75.7992 38.0241V34.816H79.0227V38.0241H75.7992ZM75.7992 34.816V31.592H79.0227V34.816H75.7992ZM75.7992 31.592V28.3679H79.0227V31.592H75.7992ZM75.7992 28.3679V25.2241H79.0227V28.3679H75.7992Z" fill="white"/>
<path d="M133.582 50.8241V54H130.375V50.8241H133.582ZM130.375 50.8241V47.6802H133.582V50.8241H130.375ZM130.375 47.6802V44.4561H133.582V47.6802H130.375ZM130.375 50.8241V54H127.151V50.8241H130.375ZM127.151 50.8241V47.6802H130.375V50.8241H127.151ZM127.151 47.6802V44.4561H130.375V47.6802H127.151ZM127.151 44.4561V41.2481H130.375V44.4561H127.151ZM127.151 50.8241V54H123.944V50.8241H127.151ZM123.944 50.8241V47.6802H127.151V50.8241H123.944ZM123.944 44.4561V41.2481H127.151V44.4561H123.944ZM123.944 50.8241V54H120.72V50.8241H123.944ZM120.72 50.8241V47.6802H123.944V50.8241H120.72ZM120.72 44.4561V41.2481H123.944V44.4561H120.72ZM120.72 50.8241V54H117.497V50.8241H120.72ZM117.497 50.8241V47.6802H120.72V50.8241H117.497ZM117.497 44.4561V41.2481H120.72V44.4561H117.497ZM117.497 41.2481V38.0241H120.72V41.2481H117.497ZM117.497 38.0241V34.816H120.72V38.0241H117.497ZM117.497 34.816V31.592H120.72V34.816H117.497ZM117.497 31.592V28.3679H120.72V31.592H117.497ZM117.497 28.3679V25.2241H120.72V28.3679H117.497ZM114.353 25.2241V22H117.497V25.2241H114.353ZM117.497 50.8241V54H114.353V50.8241H117.497ZM114.353 50.8241V47.6802H117.497V50.8241H114.353ZM114.353 44.4561V41.2481H117.497V44.4561H114.353ZM114.353 41.2481V38.0241H117.497V41.2481H114.353ZM114.353 38.0241V34.816H117.497V38.0241H114.353ZM114.353 34.816V31.592H117.497V34.816H114.353ZM114.353 31.592V28.3679H117.497V31.592H114.353ZM114.353 28.3679V25.2241H117.497V28.3679H114.353ZM111.13 25.2241V22H114.353V25.2241H111.13ZM114.353 50.8241V54H111.13V50.8241H114.353ZM111.13 50.8241V47.6802H114.353V50.8241H111.13ZM107.922 25.2241V22H111.13V25.2241H107.922ZM111.13 50.8241V54H107.922V50.8241H111.13ZM107.922 50.8241V47.6802H111.13V50.8241H107.922ZM104.699 25.2241V22H107.922V25.2241H104.699ZM104.699 50.8241V47.6802H107.922V50.8241H104.699ZM104.699 47.6802V44.4561H107.922V47.6802H104.699ZM104.699 44.4561V41.2481H107.922V44.4561H104.699ZM104.699 41.2481V38.0241H107.922V41.2481H104.699ZM104.699 38.0241V34.816H107.922V38.0241H104.699ZM104.699 34.816V31.592H107.922V34.816H104.699ZM104.699 31.592V28.3679H107.922V31.592H104.699ZM104.699 28.3679V25.2241H107.922V28.3679H104.699Z" fill="white"/>
<path d="M162.434 50.8241V54H159.274V50.8241H162.434ZM159.274 50.8241V47.6802H162.434V50.8241H159.274ZM159.274 47.6802V44.4561H162.434V47.6802H159.274ZM159.274 44.4561V41.2481H162.434V44.4561H159.274ZM159.274 41.2481V38.0241H162.434V41.2481H159.274ZM159.274 38.0241V34.816H162.434V38.0241H159.274ZM159.274 34.816V31.592H162.434V34.816H159.274ZM159.274 31.592V28.3679H162.434V31.592H159.274ZM159.274 50.8241V54H156.067V50.8241H159.274ZM156.067 50.8241V47.6802H159.274V50.8241H156.067ZM156.067 47.6802V44.4561H159.274V47.6802H156.067ZM156.067 44.4561V41.2481H159.274V44.4561H156.067ZM156.067 41.2481V38.0241H159.274V41.2481H156.067ZM156.067 38.0241V34.816H159.274V38.0241H156.067ZM156.067 34.816V31.592H159.274V34.816H156.067ZM156.067 31.592V28.3679H159.274V31.592H156.067ZM156.067 28.3679V25.2241H159.274V28.3679H156.067ZM152.843 25.2241V22H156.067V25.2241H152.843ZM156.067 50.8241V54H152.843V50.8241H156.067ZM152.843 50.8241V47.6802H156.067V50.8241H152.843ZM152.843 28.3679V25.2241H156.067V28.3679H152.843ZM149.636 25.2241V22H152.843V25.2241H149.636ZM152.843 50.8241V54H149.636V50.8241H152.843ZM149.636 50.8241V47.6802H152.843V50.8241H149.636ZM146.412 25.2241V22H149.636V25.2241H146.412ZM146.412 50.8241V47.6802H149.636V50.8241H146.412ZM146.412 47.6802V44.4561H149.636V47.6802H146.412ZM146.412 44.4561V41.2481H149.636V44.4561H146.412ZM146.412 38.0241V34.816H149.636V38.0241H146.412ZM146.412 34.816V31.592H149.636V34.816H146.412ZM146.412 31.592V28.3679H149.636V31.592H146.412ZM143.189 25.2241V22H146.412V25.2241H143.189ZM146.412 50.8241V54H143.189V50.8241H146.412ZM143.189 50.8241V47.6802H146.412V50.8241H143.189ZM143.189 47.6802V44.4561H146.412V47.6802H143.189ZM143.189 44.4561V41.2481H146.412V44.4561H143.189ZM143.189 38.0241V34.816H146.412V38.0241H143.189ZM143.189 34.816V31.592H146.412V34.816H143.189ZM143.189 31.592V28.3679H146.412V31.592H143.189ZM140.045 25.2241V22H143.189V25.2241H140.045ZM143.189 50.8241V54H140.045V50.8241H143.189ZM140.045 50.8241V47.6802H143.189V50.8241H140.045ZM140.045 47.6802V44.4561H143.189V47.6802H140.045ZM140.045 44.4561V41.2481H143.189V44.4561H140.045ZM140.045 38.0241V34.816H143.189V38.0241H140.045ZM140.045 34.816V31.592H143.189V34.816H140.045ZM140.045 31.592V28.3679H143.189V31.592H140.045ZM136.822 25.2241V22H140.045V25.2241H136.822ZM140.045 50.8241V54H136.822V50.8241H140.045ZM136.822 50.8241V47.6802H140.045V50.8241H136.822ZM133.614 25.2241V22H136.822V25.2241H133.614ZM136.822 50.8241V54H133.614V50.8241H136.822ZM133.614 50.8241V47.6802H136.822V50.8241H133.614ZM133.614 28.3679V25.2241H136.822V28.3679H133.614ZM130.391 50.8241V47.6802H133.614V50.8241H130.391ZM130.391 47.6802V44.4561H133.614V47.6802H130.391ZM130.391 44.4561V41.2481H133.614V44.4561H130.391ZM130.391 41.2481V38.0241H133.614V41.2481H130.391ZM130.391 38.0241V34.816H133.614V38.0241H130.391ZM130.391 34.816V31.592H133.614V34.816H130.391ZM130.391 31.592V28.3679H133.614V31.592H130.391ZM130.391 28.3679V25.2241H133.614V28.3679H130.391Z" fill="white"/>
<path d="M188.174 50.8241V47.6802H191.333V50.8241H188.174ZM188.174 47.6802V44.4561H191.333V47.6802H188.174ZM188.174 44.4561V41.2481H191.333V44.4561H188.174ZM188.174 41.2481V38.0241H191.333V41.2481H188.174ZM188.174 38.0241V34.816H191.333V38.0241H188.174ZM188.174 34.816V31.592H191.333V34.816H188.174ZM188.174 31.592V28.3679H191.333V31.592H188.174ZM188.174 50.8241V54H184.966V50.8241H188.174ZM184.966 50.8241V47.6802H188.174V50.8241H184.966ZM184.966 47.6802V44.4561H188.174V47.6802H184.966ZM184.966 44.4561V41.2481H188.174V44.4561H184.966ZM184.966 41.2481V38.0241H188.174V41.2481H184.966ZM184.966 38.0241V34.816H188.174V38.0241H184.966ZM184.966 34.816V31.592H188.174V34.816H184.966ZM184.966 31.592V28.3679H188.174V31.592H184.966ZM184.966 28.3679V25.2241H188.174V28.3679H184.966ZM181.743 25.2241V22H184.966V25.2241H181.743ZM184.966 50.8241V54H181.743V50.8241H184.966ZM181.743 50.8241V47.6802H184.966V50.8241H181.743ZM181.743 47.6802V44.4561H184.966V47.6802H181.743ZM181.743 38.0241V34.816H184.966V38.0241H181.743ZM181.743 28.3679V25.2241H184.966V28.3679H181.743ZM178.535 25.2241V22H181.743V25.2241H178.535ZM181.743 50.8241V54H178.535V50.8241H181.743ZM178.535 50.8241V47.6802H181.743V50.8241H178.535ZM175.312 25.2241V22H178.535V25.2241H175.312ZM178.535 50.8241V54H175.312V50.8241H178.535ZM175.312 50.8241V47.6802H178.535V50.8241H175.312ZM175.312 44.4561V41.2481H178.535V44.4561H175.312ZM175.312 41.2481V38.0241H178.535V41.2481H175.312ZM175.312 34.816V31.592H178.535V34.816H175.312ZM175.312 31.592V28.3679H178.535V31.592H175.312ZM172.088 25.2241V22H175.312V25.2241H172.088ZM175.312 50.8241V54H172.088V50.8241H175.312ZM172.088 50.8241V47.6802H175.312V50.8241H172.088ZM172.088 44.4561V41.2481H175.312V44.4561H172.088ZM172.088 41.2481V38.0241H175.312V41.2481H172.088ZM172.088 34.816V31.592H175.312V34.816H172.088ZM172.088 31.592V28.3679H175.312V31.592H172.088ZM168.945 25.2241V22H172.088V25.2241H168.945ZM172.088 50.8241V54H168.945V50.8241H172.088ZM168.945 50.8241V47.6802H172.088V50.8241H168.945ZM168.945 44.4561V41.2481H172.088V44.4561H168.945ZM168.945 41.2481V38.0241H172.088V41.2481H168.945ZM168.945 34.816V31.592H172.088V34.816H168.945ZM168.945 31.592V28.3679H172.088V31.592H168.945ZM165.721 25.2241V22H168.945V25.2241H165.721ZM168.945 50.8241V54H165.721V50.8241H168.945ZM165.721 50.8241V47.6802H168.945V50.8241H165.721ZM162.514 25.2241V22H165.721V25.2241H162.514ZM165.721 50.8241V54H162.514V50.8241H165.721ZM162.514 50.8241V47.6802H165.721V50.8241H162.514ZM159.29 25.2241V22H162.514V25.2241H159.29ZM159.29 50.8241V47.6802H162.514V50.8241H159.29ZM159.29 47.6802V44.4561H162.514V47.6802H159.29ZM159.29 44.4561V41.2481H162.514V44.4561H159.29ZM159.29 41.2481V38.0241H162.514V41.2481H159.29ZM159.29 38.0241V34.816H162.514V38.0241H159.29ZM159.29 34.816V31.592H162.514V34.816H159.29ZM159.29 31.592V28.3679H162.514V31.592H159.29ZM159.29 28.3679V25.2241H162.514V28.3679H159.29Z" fill="white"/>
</svg>
