<svg width="52" height="52" viewBox="0 0 52 52" fill="none" xmlns="http://www.w3.org/2000/svg">
<path d="M17.6225 11.0619L40.3656 24.5896C41.1369 25.0484 41.3902 26.0456 40.9315 26.8169C40.7932 27.0494 40.5991 27.2436 40.3668 27.3821L17.6237 40.9372C16.8528 41.3966 15.8553 41.1442 15.3959 40.3732C15.2459 40.1216 15.1667 39.8342 15.1667 39.5413V12.4585C15.1667 11.5611 15.8943 10.8335 16.7917 10.8335C17.0842 10.8335 17.3711 10.9124 17.6225 11.0619Z" fill="white"/>
</svg>
