<svg version="1.1" xmlns="http://www.w3.org/2000/svg" xmlns:xlink="http://www.w3.org/1999/xlink">
    <symbol id="vk-icon" viewBox="0 0 30 30" fill="none">
        <path fill-rule="evenodd" clip-rule="evenodd" d="M15.9129 20.9498C15.9129 20.9498 16.2981 20.9081 16.4948 20.699C16.6758 20.5071 16.67 20.1468 16.67 20.1468C16.67 20.1468 16.6451 18.4597 17.4392 18.2112C18.222 17.9665 19.2273 19.8418 20.2928 20.5628C21.0985 21.1085 21.7107 20.9889 21.7107 20.9889L24.5597 20.9498C24.5597 20.9498 26.05 20.8592 25.3434 19.7039C25.2854 19.6093 24.9318 18.8492 23.2251 17.2871C21.4388 15.6523 21.678 15.9167 23.8298 13.0888C25.1403 11.3666 25.6643 10.3152 25.5006 9.86484C25.3445 9.43592 24.3807 9.54929 24.3807 9.54929L21.1729 9.569C21.1729 9.569 20.9351 9.53701 20.7588 9.64096C20.5864 9.7429 20.4755 9.98049 20.4755 9.98049C20.4755 9.98049 19.9678 11.3132 19.2907 12.4466C17.8623 14.8382 17.2912 14.9644 17.0578 14.8159C16.5148 14.4698 16.6503 13.4255 16.6503 12.6836C16.6503 10.366 17.0068 9.39966 15.9561 9.14951C15.6074 9.06641 15.3508 9.01158 14.4591 9.00273C13.3145 8.99102 12.3457 9.00615 11.7972 9.27116C11.4323 9.44735 11.1508 9.83999 11.3222 9.86255C11.5342 9.89054 12.0144 9.9902 12.269 10.332C12.5977 10.7729 12.5861 11.7632 12.5861 11.7632C12.5861 11.7632 12.775 14.4915 12.145 14.8305C11.7126 15.0629 11.1195 14.5883 9.84608 12.4186C9.19358 11.3072 8.70094 10.0787 8.70094 10.0787C8.70094 10.0787 8.60595 9.84913 8.43653 9.72634C8.2309 9.57756 7.9436 9.53016 7.9436 9.53016L4.89541 9.54986C4.89541 9.54986 4.43781 9.56243 4.26984 9.75861C4.1204 9.93309 4.25796 10.294 4.25796 10.294C4.25796 10.294 6.64439 15.7991 9.3465 18.5733C11.8241 21.1168 14.6378 20.9498 14.6378 20.9498H15.9129Z" fill="white"/>
    </symbol>
    <symbol id="telegram-icon" viewBox="0 0 30 30" fill="none" >
        <path d="M12.9218 17.6871L20.0367 23.1706C20.8489 23.639 21.4341 23.3969 21.6376 22.3848L24.5334 8.14631C24.8293 6.90612 24.0793 6.34304 23.3041 6.71141L6.29616 13.5526C5.13584 14.0385 5.14088 14.7138 6.08427 15.0156L10.4481 16.4364L20.5546 9.78644C21.0305 9.48472 21.4678 9.64611 21.1096 9.9794" fill="white"/>
    </symbol>
    <symbol id="facebook-icon" viewBox="0 0 30 30" fill="none" >
        <path d="M20.5523 17.943H17.2472V24.5999H12.2397V17.943H9.00098V13.5178H12.2397V10.6542C12.2397 8.60649 13.1751 5.3999 17.2918 5.3999L21.001 5.41604V9.7114H18.3097C17.8682 9.7114 17.2475 9.94076 17.2475 10.9176V13.5219H20.9898L20.5523 17.943Z" fill="white"/>
    </symbol>
    <symbol id="facebook-messenger-icon" viewBox="0 0 30 30" fill="none" >
        <path d="M17.0835 21L11.9052 15.3819L1.7998 20.9983L12.9161 9L18.2216 14.6163L28.1998 9L17.0835 21Z" fill="white"/>
    </symbol>
</svg>










